<svg xmlns="http://www.w3.org/2000/svg" xmlns:xlink="http://www.w3.org/1999/xlink" version="1.2" viewBox="45.1 220.6 338.43 58.33">
<g id="surface31253">
<path style=" stroke:none;fill-rule:nonzero;fill:rgb(0%,0%,0%);fill-opacity:1;" d="M 45.132812 243.738281 L 49.933594 243.738281 L 49.933594 268.601562 C 49.933594 276.703125 54.734375 278.910156 60.796875 278.910156 C 63.074219 278.910156 67.636719 278.285156 69.683594 277.417969 L 69.683594 271.59375 C 60.558594 273.722656 56.625 273.402344 56.625 267.816406 L 56.625 243.738281 L 68.738281 243.738281 L 68.738281 237.992188 L 56.625 237.992188 L 56.625 226.742188 L 53.085938 226.742188 L 49.933594 237.992188 L 45.132812 237.992188 Z M 45.132812 243.738281 "/>
<path style=" stroke:none;fill-rule:nonzero;fill:rgb(0%,0%,0%);fill-opacity:1;" d="M 102.109375 238.855469 C 99.667969 237.515625 97.152344 237.207031 95.261719 237.207031 C 88.175781 237.355469 85.425781 243.976562 85.425781 244.917969 L 85.265625 244.917969 L 83.058594 237.992188 L 78.65625 237.992188 L 78.65625 278.125 L 85.34375 278.125 L 85.34375 253.804688 C 85.34375 247.035156 90.304688 243.578125 94.546875 243.578125 C 98.015625 243.578125 100.144531 244.441406 101.394531 245.226562 L 102.109375 244.679688 Z M 102.109375 238.855469 "/>
<path style=" stroke:none;fill-rule:nonzero;fill:rgb(0%,0%,0%);fill-opacity:1;" d="M 122.167969 272.847656 C 118.003906 272.847656 112.886719 271.117188 112.886719 265.691406 L 112.886719 261.050781 L 138.230469 261.050781 L 138.230469 251.449219 C 138.230469 241.769531 131.699219 237.207031 122.019531 237.207031 C 112.339844 237.207031 106.199219 241.769531 106.199219 251.449219 L 106.199219 264.90625 C 106.199219 274.109375 112.339844 278.910156 122.167969 278.910156 C 131.0625 278.910156 137.992188 275.054688 137.992188 267.101562 L 131.300781 267.101562 C 131.300781 271.832031 126.023438 272.847656 122.167969 272.847656 Z M 112.886719 250.664062 C 112.886719 245.226562 117.925781 243.261719 122.019531 243.261719 C 126.183594 243.261719 131.539062 245.226562 131.539062 250.664062 L 131.539062 254.988281 L 112.886719 254.988281 Z M 112.886719 250.664062 "/>
<path style=" stroke:none;fill-rule:nonzero;fill:rgb(0%,0%,0%);fill-opacity:1;" d="M 203.460938 251.609375 C 203.460938 241.769531 199.765625 237.207031 190.867188 237.207031 C 184.339844 237.207031 178.914062 241.449219 178.914062 243.816406 L 178.753906 243.816406 C 177.105469 238.617188 171.984375 237.207031 166.789062 237.207031 C 160.335938 237.207031 155.695312 242.234375 155.695312 244.125 L 155.535156 244.125 L 153.261719 237.992188 L 148.925781 237.992188 L 148.925781 278.125 L 155.617188 278.125 L 155.617188 252.941406 C 155.617188 246.726562 161.441406 243.417969 165.613281 243.417969 C 169.777344 243.417969 172.769531 245.226562 172.769531 250.265625 L 172.769531 278.125 L 179.539062 278.125 L 179.539062 253.019531 C 179.539062 246.726562 186.066406 243.417969 190.242188 243.417969 C 194.417969 243.417969 196.691406 245 196.691406 250.425781 L 196.691406 278.125 L 203.460938 278.125 Z M 203.460938 251.609375 "/>
<path style=" stroke:none;fill-rule:nonzero;fill:rgb(0%,0%,0%);fill-opacity:1;" d="M 222.035156 244.054688 L 221.875 244.054688 L 221.957031 241.449219 L 221.957031 220.601562 L 215.265625 220.601562 L 215.265625 265.691406 C 215.265625 274.425781 221.714844 278.910156 231.476562 278.910156 C 240.054688 278.832031 247.21875 274.507812 247.21875 265.691406 L 247.21875 249.867188 C 247.21875 241.929688 242.648438 237.207031 234.628906 237.207031 C 228.167969 237.207031 222.035156 242.234375 222.035156 244.054688 Z M 221.957031 266.476562 L 221.957031 252.78125 C 221.957031 245.148438 229.746094 243.5 233.683594 243.5 C 238.007812 243.5 240.132812 244.601562 240.53125 249.867188 L 240.53125 266.476562 C 240.132812 271.902344 235.652344 272.847656 231.316406 272.847656 C 227.382812 272.847656 222.34375 271.902344 221.957031 266.476562 Z M 221.957031 266.476562 "/>
<path style=" stroke:none;fill-rule:nonzero;fill:rgb(0%,0%,0%);fill-opacity:1;" d="M 272.628906 272.847656 C 268.464844 272.847656 263.34375 271.117188 263.34375 265.691406 L 263.34375 261.050781 L 288.6875 261.050781 L 288.6875 251.449219 C 288.6875 241.769531 282.160156 237.207031 272.476562 237.207031 C 262.796875 237.207031 256.65625 241.769531 256.65625 251.449219 L 256.65625 264.90625 C 256.65625 274.109375 262.796875 278.910156 272.628906 278.910156 C 281.523438 278.910156 288.449219 275.054688 288.449219 267.101562 L 281.761719 267.101562 C 281.761719 271.832031 276.484375 272.847656 272.628906 272.847656 Z M 263.34375 250.664062 C 263.34375 245.226562 268.382812 243.261719 272.476562 243.261719 C 276.640625 243.261719 282 245.226562 282 250.664062 L 282 254.988281 L 263.34375 254.988281 Z M 263.34375 250.664062 "/>
<path style=" stroke:none;fill-rule:nonzero;fill:rgb(0%,0%,0%);fill-opacity:1;" d="M 305.675781 278.125 L 305.675781 220.679688 L 298.988281 220.679688 L 298.988281 278.125 Z M 305.675781 278.125 "/>
<path style=" stroke:none;fill-rule:nonzero;fill:rgb(0%,0%,0%);fill-opacity:1;" d="M 341.566406 271.984375 L 341.726562 271.984375 L 344.003906 278.125 L 348.335938 278.125 L 348.335938 237.992188 L 344.003906 237.992188 L 341.726562 244.125 L 341.566406 244.125 C 341.566406 242.234375 336.527344 237.207031 330.078125 237.207031 C 320.398438 237.207031 316.382812 241.691406 316.382812 251.210938 L 316.382812 264.667969 C 316.382812 274.1875 320.558594 278.910156 330.078125 278.910156 C 336.527344 278.910156 341.566406 273.949219 341.566406 271.984375 Z M 341.648438 263.097656 C 341.648438 269.386719 335.347656 272.847656 331.179688 272.847656 C 326.847656 272.847656 323.070312 271.675781 323.070312 266.238281 L 323.070312 249.640625 C 323.070312 244.054688 327.007812 243.261719 331.179688 243.261719 C 335.347656 243.261719 341.648438 246.726562 341.648438 253.019531 Z M 341.648438 263.097656 "/>
<path style=" stroke:none;fill-rule:nonzero;fill:rgb(0%,0%,0%);fill-opacity:1;" d="M 358.957031 243.738281 L 363.757812 243.738281 L 363.757812 268.601562 C 363.757812 276.703125 368.558594 278.910156 374.621094 278.910156 C 376.894531 278.910156 381.457031 278.285156 383.503906 277.417969 L 383.503906 271.59375 C 374.382812 273.722656 370.445312 273.402344 370.445312 267.816406 L 370.445312 243.738281 L 382.5625 243.738281 L 382.5625 237.992188 L 370.445312 237.992188 L 370.445312 226.742188 L 366.90625 226.742188 L 363.757812 237.992188 L 358.957031 237.992188 Z M 358.957031 243.738281 "/>
</g>
</svg>